…
# left join to find differences between dfs
combined_wdi <- countries_who %>%
  left_join(wdi_filt_cs, by = "country_code", suffix = c("_who", "_wdi"))

#datatable(combined_wdi, 
#          options = list(pageLength = 10, 
#                         scrollX = TRUE, 
#                         scrollY = "300px"))
print(combined_wdi)
```

    ## # A tibble: 182 × 3
    ##    country_code country_who country_wdi
    ##    <chr>        <chr>       <chr>      
    ##  1 AFG          Afghanistan Afghanistan
    ##  2 ALB          Albania     Albania    
    ##  3 DZA          Algeria     Algeria    
    ##  4 AND          Andorra     Andorra    
    ##  5 AGO          Angola      Angola     
    ##  6 ARG          Argentina   Argentina  
    ##  7 ARM          Armenia     Armenia    
    ##  8 AUS          Australia   Australia  
    ##  9 AUT          Austria     Austria    
    ## 10 AZE          Azerbaijan  Azerbaijan 
    ## # ℹ 172 more rows
…
